02-matriz-de-documentos-e-termos.R
…
## # A tibble: 6 x 6
##   doc   word      n     tf   idf tf_idf
##   <chr> <chr> <int>  <dbl> <dbl>  <dbl>
## 1 008   de       16 0.0588 0.677 0.0398
## 2 010   e        14 0.0553 0.556 0.0307
## 3 012   o        14 0.0511 0.570 0.0291
## 4 040   o        13 0.0485 0.570 0.0276
## 5 040   e        12 0.0448 0.556 0.0249
## 6 008   e        11 0.0404 0.556 0.0225

# Os termos mais comuns.
my_text %>%
    arrange(tf_idf)

## # A tibble: 8,269 x 6
##    doc   word      n      tf   idf  tf_idf
##    <chr> <chr> <int>   <dbl> <dbl>   <dbl>
##  1 008   carro     2 0.00735 0.391 0.00288
##  2 017   carro     1 0.00763 0.391 0.00299
##  3 008   com       1 0.00368 0.824 0.00303
##  4 148   carro     1 0.00826 0.391 0.00323
##  5 008   no       1 0.00368 0.902 0.00332
##  6 173   carro     1 0.00870 0.391 0.00340
##  7 008   para      1 0.00368 0.997 0.00367
##  8 040   para      1 0.00373 0.997 0.00372
##  9 106   carro     1 0.01    0.391 0.00391
## 10 008   muito     1 0.00368 1.07  0.00392
## # ... with 8,259 more rows

# Os termos mais raros.
my_text %>%
    arrange(desc(tf_idf))

## # A tibble: 8,269 x 6
##    doc   word             n    tf   idf tf_idf
##    <chr> <chr>        <int> <dbl> <dbl>  <dbl>
##  1 138   decepcionado     1 1      5.50   5.50
##  2 094   mito             1 0.5    5.50   2.75
##  3 242   descontente      1 0.5    5.50   2.75
##  4 214   aquisio        1 0.5    3.89   1.94
##  5 197   excelente        1 1      1.86   1.86
##  6 082   indico           1 0.5    3.71   1.85
##  7 019   pessimo          1 0.333  5.50   1.83
##  8 214   tima            1 0.5    3.55   1.78
##  9 022   recomendo        1 1      1.57   1.57
## 10 221   to               1 0.25   5.50   1.37
## # ... with 8,259 more rows
…
