03-analise-de-sentimento.R
…
# Aplica filtro para reter apenas um modelo de carro.
mod <- c("CHEVROLET CELTA",
         "CHEVROLET ONIX",
         "FIAT PALIO",
         "FIAT UNO",
         "HYUNDAI HB",
         "RENAULT SANDERO",
         "VOLKSWAGEN FOX",
         "VOLKSWAGEN GOL")[4]
texto <- tt %>%
    filter(str_detect(product, mod)) %>%
    select(id, general)
texto

## # A tibble: 591 x 2
##    id       general                                                             
##    <chr>    <chr>                                                               
##  1 9e2ad4ae Opinio Geral:                                                      
##  2 88d69bb3 Opinio Geral:Por isso  usado por empresas,  um carro pra andar a~
##  3 77661a4f Opinio Geral:Considerando os pontos positivos e negativos ainda si~
##  4 6c29ce19 Opinio Geral: um bom carro para o dia a dia, faz jus aos 6 mil re~
##  5 aa02db7a Opinio Geral:Carro guerreiro, muito bem feito em relao a mecanic~
##  6 9e28e0e0 Opinio Geral:No  um timo custo benefcio como todos dizem. No ~
##  7 704ef231 Opinio Geral:Tenho grande apreo pelo meu carro. No me deixa na m~
##  8 2a1789ae Opinio Geral:Recomendo muito carro muito bom para quem quiser carr~
##  9 a1512795 Opinio Geral:Comprei p/ minha esposa aprende a dirigi por ter manu~
## 10 fa05d377 Opinio Geral:Em geral o uno  excelente, simples, guerreiro, meu v~
## # ... with 581 more rows
…
# Remoo das stop words.
texto$general <- texto$general %>%
    removeWords(words = c("bom", "muito", "pouco",
                          stopwords(kind = "pt")))

# Faz tokenizao nas palavras individuais e empilha as palavras.
texto_un <- texto %>%
    unnest_tokens(output = "words", input = general)
texto_un

## # A tibble: 12,013 x 2
##    id       words   
##    <chr>    <chr>   
##  1 88d69bb3        
##  2 88d69bb3 usado   
##  3 88d69bb3 empresas
##  4 88d69bb3        
##  5 88d69bb3 carro   
##  6 88d69bb3 pra     
##  7 88d69bb3 andar   
##  8 88d69bb3 estourar
##  9 88d69bb3 trocar  
## 10 88d69bb3 vale    
## # ... with 12,003 more rows
…
# Faz a agregao da polaridade por documento.
tb <- tb_sen %>%
    group_by(id) %>%
    summarise(soma = sum(polarity),
              n = n(),
              sentiment = soma/n)
tb

## # A tibble: 529 x 4
##    id        soma     n sentiment
##    <chr>    <int> <int>     <dbl>
##  1 00372114    -1     4    -0.25 
##  2 012daaf9     0     2     0    
##  3 022fa78c    -1     4    -0.25 
##  4 0321d966     0     6     0    
##  5 0399ddcb     2     8     0.25 
##  6 04ac2945    -1     4    -0.25 
##  7 04c41d38     1     4     0.25 
##  8 0531ddbe     1     4     0.25 
##  9 0596484b     0     4     0    
## 10 05d8f532     5     9     0.556
## # ... with 519 more rows
…
# As avaliaes mais positivas.
tb %>%
    top_n(sentiment, n = 10) %>%
    inner_join(tt[, c("id", "general")]) %>%
    select(sentiment, general)

## Joining, by = "id"

## # A tibble: 49 x 2
##    sentiment general                                                            
##        <dbl> <chr>                                                              
##  1         1 Opinio Geral:um carro de bom custo-benefcio, mas com aparencia m~
##  2         1 Opinio Geral:Carro relativamente barato, excelente pra quem traba~
##  3         1 Opinio Geral:Bom e barato. Super acessvel.                       
##  4         1 Opinio Geral:tima opo dentre os carros baratos. O resto  rest~
##  5         1 Opinio Geral:O custo beneficio  bom pra quem quer um carrimho bo~
##  6         1 Opinio Geral:excelente carro pra quem num faz tanta questo de lu~
##  7         1 Opinio Geral:TIMO CARRO, S ESPERAVA SER MAIS ECONMICO...       
##  8         1 Opinio Geral:Excelente carro, no tenho do que reclamar!          
##  9         1 Opinio Geral:otimo para o dia a dia                               
## 10         1 Opinio Geral:Excelente carro.                                     
## # ... with 39 more rows
…
# Para poder melhorar o dicionrio.

# Determina as frequncias dos termos de polaridade no nula.
tb_words <- tb_sen %>%
    count(words, polarity, sort = TRUE) %>%
    filter(polarity != 0)

tb_cloud <- tb_words %>%
    spread(key = "polarity", value = "n", fill = 0) %>%
    rename("negative" = "-1", "positive" = "1")
tb_cloud

## # A tibble: 417 x 3
##    words      negative positive
##    <chr>         <dbl>    <dbl>
##  1 abastecer         0        1
##  2 abrir             1        0
##  3 acabados          1        0
##  4 acabamento        0       22
##  5 aceito            0        1
##  6 acessivel         0        1
##  7 achar             0        3
##  8 acostumar         0        1
##  9 afirmar           0        2
## 10 afundada          1        0
## # ... with 407 more rows
…
# Seleciona dados de um tipo de veculo.

tb <- tt %>%
    filter(str_detect(product, mod))
tb

## # A tibble: 591 x 11
##    id       title   model owner condi~1 good  bad   defect general ts    product
##    <chr>    <chr>   <chr> <chr> <chr>   <chr> <chr> <chr>  <chr>   <chr> <chr>  
##  1 9e2ad4ae "\"Vai~ Fiat~ Dani~ Dono h~ Prs~ Cont~ Defei~ Opini~ 01/0~ FIAT U~
##  2 88d69bb3 "\"Car~ Fiat~ Will~ Dono h~ Prs~ Cont~ Defei~ Opini~ 30/0~ FIAT U~
##  3 77661a4f "\"VEL~ Fiat~ Alex~ Dono h~ Prs~ Cont~ Defei~ Opini~ 06/1~ FIAT U~
##  4 6c29ce19 "\"Bom~ Fiat~ Feli~ Dono h~ Prs~ Cont~ Defei~ Opini~ 10/0~ FIAT U~
##  5 aa02db7a "\"Car~ Fiat~ Joaq~ Dono h~ Prs~ Cont~ Defei~ Opini~ 20/0~ FIAT U~
##  6 9e28e0e0 "\"fal~ Fiat~ Dieg~ Dono h~ Prs~ Cont~ Defei~ Opini~ 24/0~ FIAT U~
##  7 704ef231 "\"Ate~ Fiat~ Rein~ Dono h~ Prs~ Cont~ Defei~ Opini~ 03/0~ FIAT U~
##  8 2a1789ae "\"mui~ Fiat~ Feli~ Dono h~ Prs~ Cont~ Defei~ Opini~ 01/0~ FIAT U~
##  9 a1512795 "\"ti~ Fiat~ Marc~ Dono h~ Prs~ Cont~ Defei~ Opini~ 14/0~ FIAT U~
## 10 fa05d377 "\"Iss~ Fiat~ Rafa~ Dono h~ Prs~ Cont~ Defei~ Opini~ 05/0~ FIAT U~
## # ... with 581 more rows, and abbreviated variable name 1: condition
…
